/* XPM */
static char * maximize_active_xpm[] = {
"7 17 3 1",
" 	c None",
".	c #F6F6F6 s active_color_2",
"+	c #505050 s active_text_color",
"@	c #b1b1b1 s inactive_text_color",
"       ",
".......",
".......",
".......",
".......",
"       ",
" +++++ ",
" +++++ ",
" +   + ",
" +   + ",
" +++++ ",
"       ",
".......",
".......",
".......",
".......",
"       "};