/* XPM */
static char * top_left_inactive_xpm[] = {
"1 18 4 1",
" 	c None",
".	c #F6F6F6 s active_color_2",
"+	c #808080",
"@	c #B9B9B9",
"#	c #8A8A8A",
"$	c #ADADAD",
"........",
".+++++++",
".+++++++",
".+++++++",
".+++++++",
".+++++++",
".+++++++",
".+++++++",
".+++++++",
".+++++++",
".+++++++",
".+++++++",
".+++++++",
".+++++++",
".+++++++",
".+++++++",
".+++++++",
"........"};